sensor_id,capture_time,sensor_id,air_temperature,light,soil_moisture
105933,2016-04-04 16:02:39 UTC,37,774,44223,374
105933,2016-04-04 15:47:39 UTC,37,775,41752,376
105933,2016-04-04 15:32:39 UTC,37,775,30307,377
105933,2016-04-04 15:17:39 UTC,37,776,25741,368
105933,2016-04-04 15:02:39 UTC,37,776,16426,368
105933,2016-04-04 14:47:39 UTC,37,776,16299,380
105933,2016-04-04 14:32:39 UTC,37,776,12067,378
105933,2016-04-04 14:17:39 UTC,37,776,12660,376
105933,2016-04-04 14:02:39 UTC,37,775,8068,374
105933,2016-04-04 13:47:39 UTC,37,773,7847,376
105933,2016-04-04 13:32:39 UTC,37,773,8767,380
105933,2016-04-04 13:17:39 UTC,37,770,7385,378
105933,2016-04-04 13:02:39 UTC,37,768,13463,379
105933,2016-04-04 12:47:39 UTC,37,769,8146,370
105933,2016-04-04 12:32:39 UTC,37,767,13201,371
105933,2016-04-04 12:17:39 UTC,37,765,10683,380
105933,2016-04-04 12:02:39 UTC,37,763,8831,375
105933,2016-04-04 11:47:39 UTC,37,755,14920,383
105933,2016-04-04 11:32:39 UTC,37,752,13581,378
105933,2016-04-04 11:17:39 UTC,37,744,6811,380
105933,2016-04-04 11:02:39 UTC,37,741,5846,378
105933,2016-04-04 10:47:39 UTC,37,737,8310,370
105933,2016-04-04 10:32:39 UTC,37,739,9941,384
105933,2016-04-04 10:17:39 UTC,37,739,8791,381
105933,2016-04-04 10:02:39 UTC,37,740,6780,379
105933,2016-04-04 09:47:39 UTC,37,742,7898,374
105933,2016-04-04 09:32:39 UTC,37,745,6817,385
105933,2016-04-04 09:17:39 UTC,37,746,8553,371
105933,2016-04-04 09:02:39 UTC,37,741,7546,383
105933,2016-04-04 08:47:39 UTC,37,739,5891,377
105933,2016-04-04 08:32:39 UTC,37,740,13981,379
105933,2016-04-04 08:17:39 UTC,37,748,7158,382
105933,2016-04-04 08:02:39 UTC,37,745,3554,384
